<svg xmlns="http://www.w3.org/2000/svg" width="20" height="20" viewBox="0 0 20 20">
    <path fill="#324452" fill-rule="evenodd" d="M10 10a4 4 0 1 1 0-8 4 4 0 0 1 0 8zm-1 0h2a4 4 0 0 1 4 4v4H5v-4a4 4 0 0 1 4-4z"/>
</svg>
