<svg xmlns="http://www.w3.org/2000/svg" width="20" height="20" viewBox="0 0 20 20">
    <path fill="#608099" fill-rule="evenodd" d="M17.8 12a6.8 6.8 0 0 1-6.3 6.782V19.9l-3-2 3-2v1.276A5.2 5.2 0 0 0 16.2 12zM3 15a3 3 0 0 1 3 3v1H0v-1a3 3 0 0 1 3-3zm0-4a2 2 0 1 1 0 4 2 2 0 0 1 0-4zm14-6a3 3 0 0 1 3 3v1h-6V8a3 3 0 0 1 3-3zM8.5 0l3 2-3 2V2.824A5.2 5.2 0 0 0 3.8 8H2.2a6.8 6.8 0 0 1 6.3-6.782V0zM17 1a2 2 0 1 1 0 4 2 2 0 0 1 0-4z"/>
</svg>
